<?xml version="1.0" encoding="UTF-8"?>
<svg width="37px" height="50px" viewBox="0 0 37 50" version="1.1" xmlns="http://www.w3.org/2000/svg" xmlns:xlink="http://www.w3.org/1999/xlink">
    <title>GNU social Copy 2</title>
    <g id="Brand-Guide" stroke="none" stroke-width="1" fill="none" fill-rule="evenodd">
        <g id="GNU-social-Copy-2" transform="translate(-0.000000, 0.000000)" fill="#000000" fill-rule="nonzero">
            <path d="M6.67005912,0 C6.08016128,0 5.29363083,0.441073546 4.31046777,1.32322064 C3.32730471,2.20536773 2.48178447,3.21493607 1.77390707,4.35192566 C0.987376618,5.64574139 0.594111393,6.80233425 0.594111393,7.82170422 L0.594111393,8.11575325 C0.594111393,9.33115591 0.633437916,10.2917161 0.712090961,10.9974338 C0.869397051,12.1736299 1.18400923,13.1733966 1.6559275,13.9967339 C2.24582534,15.0553104 3.09134557,15.8982509 4.1924882,16.5255555 C2.58010078,18.1330236 1.41996837,20.1521602 0.712090961,22.5829656 C0.200846168,24.5432924 -0.0351129665,26.7976683 0.00421355598,29.3460933 C0.0435400785,32.5218228 0.53512161,35.4231066 1.47895815,38.0499446 C2.69808035,41.4217068 4.56609017,44.0877514 7.08298761,46.0480782 C10.0718033,48.4004705 13.9061393,49.7040878 18.5859954,49.9589303 C23.2658516,50.2137728 27.1001876,49.2826176 30.0890033,47.1654645 C32.5665742,45.4011704 34.3952575,42.9115552 35.5750532,39.6966192 C36.4795632,37.1089877 36.9318182,34.3057203 36.9318182,31.2868169 L21.0635664,31.2868169 L23.6591168,38.226374 L28.3193098,37.9911348 L28.3193098,38.5792328 C28.2799832,39.0105048 28.1620037,39.4613799 27.9653711,39.9318584 C27.6900854,40.5199565 27.2771569,41.0296414 26.7265856,41.4609134 C26.0187082,42.0490114 25.1141982,42.4802833 24.0130555,42.7547291 C22.6759538,43.0683814 21.0832296,43.186001 19.2348831,43.1075879 C15.8528021,42.9899683 13.3162414,41.9902016 11.625201,40.1082878 C9.73752787,38.0303413 8.79369133,34.7369922 8.79369133,30.2282404 C8.79369133,27.719022 8.89200764,25.8371082 9.08864025,24.582499 C9.32459939,23.0926506 9.78668603,21.9654626 10.4749002,21.2009351 C11.1631143,20.4364076 12.1757723,19.8777145 13.512874,19.5248556 C14.7319962,19.2112033 16.521353,18.9955674 18.8809444,18.8779478 C20.5326583,18.8387412 22.0270662,19.0543772 23.3641679,19.5248556 C24.5046371,19.916921 25.5271267,20.5050191 26.4316367,21.2891498 C27.1395141,21.9164544 27.7687384,22.6417754 28.3193098,23.4651127 C28.6732485,24.0532107 28.9681974,24.6805153 29.2041565,25.3470265 L29.4401156,26.1115539 L36.8138386,26.2291736 L36.695859,25.3470265 C36.538553,24.5628957 36.3025938,23.7591617 35.9879816,22.9358244 C35.5947164,21.8380414 35.1227981,20.7990681 34.5722268,19.8189047 C33.8250229,18.5642955 32.9795027,17.4665124 32.0356661,16.5255555 C33.6873801,15.6238052 34.7688594,14.2319731 35.2801042,12.3500593 C35.5947164,11.2130697 35.712696,9.70361802 35.6340429,7.82170422 C35.5947164,7.03757347 35.0834716,5.93979042 34.1003086,4.52835508 C33.2351251,3.15612626 32.2912885,2.01913668 31.2687989,1.11738632 C30.2069828,0.137222881 29.4794422,-0.176429419 29.0861769,0.176429419 C28.8502178,0.372462106 28.7715648,0.60770133 28.8502178,0.882147093 C28.8895443,1.03897324 29.0468504,1.35262554 29.3221361,1.82310399 C29.7940543,2.60723474 30.1479931,3.31295241 30.3839522,3.94025701 C30.7378909,5.03804006 30.895197,6.25344272 30.8558705,7.586465 L30.7968807,8.46861209 C30.7968807,9.25274284 30.7575541,9.80163436 30.6789011,10.1152867 C30.521595,10.6641782 30.1873196,11.0562436 29.6760748,11.2914828 C29.0861769,11.5659285 28.1816669,11.7031514 26.9625447,11.7031514 C26.3333204,11.7031514 25.8220756,11.5659285 25.4288104,11.2914828 C25.1928512,11.1738632 24.8979023,10.8896158 24.5439636,10.4387406 C24.1900249,9.98786541 23.8557495,9.68401475 23.5411373,9.5271886 C23.0298925,9.2135363 22.3416783,9.05671015 21.4764948,9.05671015 C19.7068013,9.05671015 18.5859954,9.89965071 18.1140772,11.5855318 C17.6421589,9.89965071 16.521353,9.05671015 14.7516595,9.05671015 C13.8471495,9.05671015 13.1392721,9.2135363 12.6280273,9.5271886 C12.3134151,9.68401475 11.9791397,9.98786541 11.625201,10.4387406 C11.2712623,10.8896158 10.9763133,11.1738632 10.7403542,11.2914828 C10.347089,11.5659285 9.85550744,11.7031514 9.2656096,11.7031514 C8.04648741,11.7031514 7.14197739,11.5659285 6.55207955,11.2914828 C6.04083476,11.0562436 5.70655932,10.6641782 5.54925323,10.1152867 C5.43127366,9.80163436 5.37228388,9.25274284 5.37228388,8.46861209 L5.37228388,7.586465 C5.29363083,6.25344272 5.45093692,5.03804006 5.84420215,3.94025701 C6.04083476,3.31295241 6.3751102,2.60723474 6.84702847,1.82310399 C7.16164065,1.35262554 7.33861,1.03897324 7.37793652,0.882147093 C7.41726305,0.60770133 7.31894674,0.372462106 7.08298761,0.176429419 C7.00433456,0.0588098062 6.86669173,0 6.67005912,0 Z" id="Path"></path>
        </g>
    </g>
</svg>