<?xml version="1.0" encoding="UTF-8"?>
<svg width="47px" height="50px" viewBox="0 0 47 50" version="1.1" xmlns="http://www.w3.org/2000/svg" xmlns:xlink="http://www.w3.org/1999/xlink">
    <title>fedi</title>
    <g id="Brand-Guide" stroke="none" stroke-width="1" fill="none" fill-rule="evenodd">
        <g id="Mastodon" transform="translate(0.000000, 0.000000)" fill="#000000" fill-rule="nonzero">
            <path d="M46.6147834,16.4161942 C46.6147834,5.56971629 39.5088905,2.3894219 39.5088905,2.3894219 C32.5368606,-0.813190373 14.0191492,-0.77971359 7.11405073,2.3894219 C7.11405073,2.3894219 0.00815785439,5.56971629 0.00815785439,16.4161942 C0.00815785439,29.3270736 -0.728088504,45.3624527 11.7880996,48.6766542 C16.305975,49.8706595 20.1880012,50.1273148 23.3114706,49.948772 C28.9783366,49.636322 32.1575822,47.9290061 32.1575822,47.9290061 L31.967943,43.8113617 C31.967943,43.8113617 27.918588,45.0834795 23.3672469,44.9384134 C18.8605267,44.7821884 14.1083911,44.4474206 13.3721448,38.9125925 C13.3052133,38.4215997 13.2717476,37.908289 13.2717476,37.3615015 C22.8206397,39.6937174 30.9639707,38.376964 33.2061755,38.1091497 C39.4642695,37.3615015 44.9191858,33.5005125 45.6108111,29.9742914 C46.7040254,24.4171454 46.6147834,16.4161942 46.6147834,16.4161942 Z M38.2371923,30.3871717 L33.0388468,30.3871717 L33.0388468,17.6436763 C33.0388468,12.0976892 25.8994881,11.8856696 25.8994881,18.4136423 L25.8994881,25.3879721 L20.7346084,25.3879721 L20.7346084,18.4136423 C20.7346084,11.8856696 13.5952497,12.0976892 13.5952497,17.6436763 L13.5952497,30.3871717 L8.38574898,30.3871717 C8.38574898,16.762121 7.80567609,13.8831177 10.4383146,10.859048 C13.3275238,7.63411792 19.3402024,7.42209829 22.0174619,11.5397428 L23.3114706,13.7157337 L24.6054794,11.5397428 C27.2938941,7.39978044 33.317728,7.65643577 36.1846267,10.859048 C38.8284204,13.9054355 38.2371923,16.7732799 38.2371923,30.3871717 Z" id="path2"></path>
        </g>
    </g>
</svg>